^C:\USERS\J_IMERY\DOWNLOADS\MULTIPLECONSOLES_SRC\CONSOLELOGGERHELPER\CONSOLELOGGERHELPER.CPP
C:\USERS\J_IMERY\DOWNLOADS\MULTIPLECONSOLES_SRC\CONSOLELOGGERHELPER\DEBUG\CONSOLELOGGERHELPER.OBJ
C:\USERS\J_IMERY\DOWNLOADS\MULTIPLECONSOLES_SRC\CONSOLELOGGERHELPER\DEBUG\VC110.PDB
